…
*\[TODO: discuss strategy for future insertions\]*

The data in the `sp500_tbl` mimic the tables structure for the
`security` table which is required in order to use the `dbAppendTable`
function.

``` r
sp1500_tbl
#> # A tibble: 1,888 x 6
#>      uid start_date end_date   symbol name                   sub_industry_code
#>    <int> <chr>      <chr>      <chr>  <chr>                              <int>
#>  1     1 2021-02-19 9999-12-31 MMM    3M Company                      20105010
#>  2     2 2021-02-19 9999-12-31 ABT    Abbott Laboratories             35101010
#>  3     3 2021-02-19 9999-12-31 ABBV   AbbVie Inc.                     35202010
#>  4     4 2021-02-19 9999-12-31 ABMD   Abiomed                         35101010
#>  5     5 2021-02-19 9999-12-31 ACN    Accenture                       45102010
#>  6     6 2021-02-19 9999-12-31 ATVI   Activision Blizzard             50202020
#>  7     7 2021-02-19 9999-12-31 ADBE   Adobe Inc.                      45103010
#>  8     8 2021-02-19 9999-12-31 AMD    Advanced Micro Devices          45301020
#>  9     9 2021-02-19 9999-12-31 AAP    Advance Auto Parts              25504050
#> 10    10 2021-02-19 9999-12-31 AES    AES Corp                        55105010
#> # … with 1,878 more rows
```
…
