…
AAPL has paid regular quarterly (Feb, May, Aug, Nov) dividends since mid
2012

``` r
aapl_pricing_table %>% 
    filter(divCash != 0)
```

    ## # A tibble: 34 x 6
    ##    symbol date                close adjusted divCash splitFactor
    ##    <chr>  <dttm>              <dbl>    <dbl>   <dbl>       <dbl>
    ##  1 AAPL   2012-08-09 00:00:00 621.      19.2    2.65           1
    ##  2 AAPL   2012-11-07 00:00:00 558.      17.3    2.65           1
    ##  3 AAPL   2013-02-07 00:00:00 468.      14.6    2.65           1
    ##  4 AAPL   2013-05-09 00:00:00 457.      14.4    3.05           1
    ##  5 AAPL   2013-08-08 00:00:00 461.      14.6    3.05           1
    ##  6 AAPL   2013-11-06 00:00:00 521.      16.6    3.05           1
    ##  7 AAPL   2014-02-06 00:00:00 513.      16.4    3.05           1
    ##  8 AAPL   2014-05-08 00:00:00 588.      19.0    3.29           1
    ##  9 AAPL   2014-08-07 00:00:00  94.5     21.4    0.47           1
    ## 10 AAPL   2014-11-06 00:00:00 109.      24.8    0.47           1
    ## # … with 24 more rows
…
these should match entirely

``` r
aapl_pricing_table %>% 
    filter(date > '1999-12-31') %>% 
    mutate(my_adjusted = close / totAdjFactor) %>%
    tq_transmute(my_adjusted, periodReturn, period = "yearly", col_rename = "return")
```

    ## # A tibble: 21 x 2
    ##    date                return
    ##    <dttm>               <dbl>
    ##  1 2000-12-29 00:00:00 -0.734
    ##  2 2001-12-31 00:00:00  0.472
    ##  3 2002-12-31 00:00:00 -0.346
    ##  4 2003-12-31 00:00:00  0.491
    ##  5 2004-12-31 00:00:00  2.01 
    ##  6 2005-12-30 00:00:00  1.23 
    ##  7 2006-12-29 00:00:00  0.180
    ##  8 2007-12-31 00:00:00  1.33 
    ##  9 2008-12-31 00:00:00 -0.569
    ## 10 2009-12-31 00:00:00  1.47 
    ## # … with 11 more rows

``` r
aapl_pricing_table %>% 
    filter(date > '1999-12-31') %>% 
    tq_transmute(adjusted, periodReturn, period = "yearly", col_rename = "return")
```

    ## # A tibble: 21 x 2
    ##    date                return
    ##    <dttm>               <dbl>
    ##  1 2000-12-29 00:00:00 -0.734
    ##  2 2001-12-31 00:00:00  0.472
    ##  3 2002-12-31 00:00:00 -0.346
    ##  4 2003-12-31 00:00:00  0.491
    ##  5 2004-12-31 00:00:00  2.01 
    ##  6 2005-12-30 00:00:00  1.23 
    ##  7 2006-12-29 00:00:00  0.180
    ##  8 2007-12-31 00:00:00  1.33 
    ##  9 2008-12-31 00:00:00 -0.569
    ## 10 2009-12-31 00:00:00  1.47 
    ## # … with 11 more rows
